Data Manipulation
…
STACK %>% 
  group_by(Event, Remark) %>% 
  count()

# A tibble: 14,266 × 3
# Groups:   Event, Remark [14,266]
   Event Remark       n
   <chr> <chr>    <int>
 1 ABORT 100 DAYS     2
 2 ABORT 101 DAYS     1
 3 ABORT 102 DAYS     1
 4 ABORT 103 DAYS     3
 5 ABORT 104 DAYS     1
 6 ABORT 105 DAYS     1
 7 ABORT 106 DAYS     3
 8 ABORT 107 DAYS     1
 9 ABORT 108 DAYS     1
10 ABORT 109 DAYS     3
# ℹ 14,256 more rows
…
full_dates <- full_dates %>%
  mutate(
    LOADfull = factor(paste(Date_GODEER1)))

datachecks <- full_dates %>% 
  count(LOAD) 

datachecks1 <- full_dates %>% 
  count(LOADfull)

datachecks

# A tibble: 1,576 × 2
   LOAD             n
   <fct>        <int>
 1 2024-11-12_1    16
 2 2024-11-12_2    24
 3 2024-11-12_3    30
 4 2024-11-12_5    14
 5 2024-11-12_6    30
 6 2024-11-12_7    31
 7 2024-11-12_8    30
 8 2024-11-14_1    17
 9 2024-11-14_2    30
10 2024-11-14_3    30
# ℹ 1,566 more rows

datachecks1

# A tibble: 232 × 2
   LOADfull       n
   <fct>      <int>
 1 2024-11-12   175
 2 2024-11-14   184
 3 2024-11-16   211
 4 2024-11-18   220
 5 2024-11-20   203
 6 2024-11-22   199
 7 2024-11-24   197
 8 2024-11-26   198
 9 2024-11-27     3
10 2024-11-28   208
# ℹ 222 more rows
…
comp %>% 
  group_by(date) %>% 
  summarize(
    total = sum(n), 
    sd = mean(SD))

# A tibble: 229 × 3
   date      total    sd
   <chr>     <dbl> <dbl>
 1 1/1/2025    203  4.30
 2 1/11/2025   215  4.11
 3 1/13/2025   197  4.55
 4 1/15/2025   191  3.82
 5 1/17/2025   212  4.09
 6 1/19/2025   225  3.84
 7 1/21/2025   195  3.72
 8 1/23/2025   208  4.3 
 9 1/25/2025   226  3.82
10 1/27/2025   228  3.73
# ℹ 219 more rows
…
 full_new1 <- full_new1 %>% 
  mutate(
        diedex = 
      case_when(is.na(dfaDIED) ~ 0,
                dfaDIED<0 ~  1, 
                dfaDIED>= 0 ~ 0)) 

 full_new1 %>% 
   count(RESPex, DIAex, navelex, bloatex, illex, injuryex, lameex, septicex, diedex)

# A tibble: 23 × 10
   RESPex DIAex navelex bloatex illex injuryex lameex septicex diedex     n
    <dbl> <dbl>   <dbl>   <dbl> <dbl>    <dbl>  <dbl>    <dbl>  <dbl> <int>
 1      0     0       0       0     0        0      0        0      0 38184
 2      0     0       0       0     0        0      0        0      1     1
 3      0     0       0       0     0        0      0        1      0     4
 4      0     0       0       0     0        0      1        0      0     1
 5      0     0       0       0     0        1      0        0      0    10
 6      0     0       0       0     1        0      1        0      0     1
 7      0     0       0       1     0        0      0        0      0    10
 8      0     0       1       0     0        0      0        0      0   106
 9      0     0       1       0     0        0      0        1      0     4
10      0     0       1       0     0        1      0        1      0     1
# ℹ 13 more rows
…
# A tibble: 1 × 9
   DIA1  PN1a    B1    N1   IM1    I1    L1  Sep1  DIED
  <dbl> <dbl> <dbl> <dbl> <dbl> <dbl> <dbl> <dbl> <dbl>
1  8129 20293  1187  1928   822   474   562  9805  1606

# A tibble: 1,130 × 10
   Remark_SCOURS1 Remark_PNEU1 Remark_BLOAT1 Remark_NAVEL1 Remark_ILLMISC1
   <chr>          <chr>        <chr>         <chr>         <chr>          
 1 ELE.1.1        <NA>         <NA>          <NA>          <NA>           
 2 ELECT          BAY.15.1     PEN.5.5       <NA>          ZAC.2.2        
 3 ELECT          BAY.15.1     PEN.5.5       <NA>          <NA>           
 4 ELECT          BAY.15.1     PEN.5.5       <NA>          <NA>           
 5 ELECT          BAY.15.1     PEN.5.5       <NA>          <NA>           
 6 ELECT          BAY.15.1     <NA>          BAY.4.5       <NA>           
 7 ELECT          BAY.15.1     <NA>          PLY.2.5       <NA>           
 8 ELECT          BAY.15.1     <NA>          TUL.2.1       <NA>           
 9 ELECT          BAY.15.1     <NA>          TUL.2.1       <NA>           
10 ELECT          BAY.15.1     <NA>          TUL.2.1       <NA>           
# ℹ 1,120 more rows
# ℹ 5 more variables: Remark_INJURY1 <chr>, Remark_LAME1 <chr>,
#   Remark_SEPTIC1 <chr>, Remark_DIED1 <chr>, n <int>
…
